Name,Group,SWTDone
Nykolenko,1,true
Pir,155,true
Sorokin,5,true
as,2,true
Petrov,2,false
Dedun,100,true
Putin,0,false
Dedun,15,true
Lysenko,4,false
10yan,2,false
Nykolenko,1,true
Pir,155,true
Sorokin,5,true
as,2,true
Petrov,2,false
Dedun,100,true
Putin,0,false
Dedun,15,true
Lysenko,4,false
20yan,2,false
Nykolenko,1,true
Pir,155,true
Sorokin,5,true
as,2,true
Petrov,2,false
Dedun,100,true
Putin,0,false
Dedun,15,true
Lysenko,4,false
30yan,2,false
Nykolenko,1,true
Pir,155,true
Sorokin,5,true
as,2,true
Petrov,2,false
Dedun,100,true
Putin,0,false
Dedun,15,true
Lysenko,4,false
40yan,2,false
Nykolenko,1,true
Pir,155,true
Sorokin,5,true
as,2,true
Petrov,2,false
Dedun,100,true
Putin,0,false
Dedun,15,true
Lysenko,4,false
50yan,2,false
Nykolenko,1,true
Pir,155,true
Sorokin,5,true
as,2,true
Petrov,2,false
Dedun,100,true
Putin,0,false
Dedun,15,true
Lysenko,4,false
60yan,2,false
Nykolenko,1,true
Pir,155,true
Sorokin,5,true
as,2,true
Petrov,2,false
Dedun,100,true
Putin,0,false
Dedun,15,true
Lysenko,4,false
70yan,2,false
Nykolenko,1,true
Pir,155,true
Sorokin,5,true
as,2,true
Petrov,2,false
Dedun,100,true
Putin,0,false
Dedun,15,true
Lysenko,4,false
80yan,2,false
Nykolenko,1,true
Pir,155,true
Sorokin,5,true
as,2,true
Petrov,2,false
Dedun,100,true
Putin,0,false
Dedun,15,true
Lysenko,4,false
90yan,2,false
Nykolenko,1,true
Pir,155,true
Sorokin,5,true
as,2,true
Petrov,2,false
Dedun,100,true
Putin,0,false
Dedun,15,true
Lysenko,4,false
100yan,2,false
Nykolenko,1,true
Pir,155,true
Sorokin,5,true
as,2,true
Petrov,2,false
Dedun,100,true
Putin,0,false
Dedun,15,true
Lysenko,4,false
110yan,2,false
Nykolenko,1,true
Pir,155,true
Sorokin,5,true
as,2,true
Petrov,2,false
Dedun,100,true
Putin,0,false
Dedun,15,true
Lysenko,4,false
120yan,2,false
Nykolenko,1,true
Pir,155,true
Sorokin,5,true
as,2,true
Petrov,2,false
Dedun,100,true
Putin,0,false
Dedun,15,true
Lysenko,4,false
130yan,2,false
Nykolenko,1,true
Pir,155,true
Sorokin,5,true
as,2,true
Petrov,2,false
Dedun,100,true
Putin,0,false
Dedun,15,true
Lysenko,4,false
140yan,2,false
Nykolenko,1,true
Pir,155,true
Sorokin,5,true
as,2,true
Petrov,2,false
Dedun,100,true
Putin,0,false
Dedun,15,true
Lysenko,4,false
150yan,2,false
Nykolenko,1,true
Pir,155,true
Sorokin,5,true
as,2,true
Petrov,2,false
Dedun,100,true
Putin,0,false
Dedun,15,true
Lysenko,4,false
160yan,2,false
Nykolenko,1,true
Pir,155,true
Sorokin,5,true
as,2,true
Petrov,2,false
Dedun,100,true
Putin,0,false
Dedun,15,true
Lysenko,4,false
170yan,2,false
Nykolenko,1,true
Pir,155,true
Sorokin,5,true
as,2,true
Petrov,2,false
Dedun,100,true
Putin,0,false
Dedun,15,true
Lysenko,4,false
180yan,2,false
Nykolenko,1,true
Pir,155,true
Sorokin,5,true
as,2,true
Petrov,2,false
Dedun,100,true
Putin,0,false
Dedun,15,true
Lysenko,4,false
190yan,2,false
Nykolenko,1,true
Pir,155,true
Sorokin,5,true
as,2,true
Petrov,2,false
Dedun,100,true
Putin,0,false
Dedun,15,true
Lysenko,4,false
200yan,2,false
Nykolenko,1,true
Pir,155,true
Sorokin,5,true
as,2,true
Petrov,2,false
Dedun,100,true
Putin,0,false
Dedun,15,true
Lysenko,4,false
210yan,2,false
Nykolenko,1,true
Pir,155,true
Sorokin,5,true
as,2,true
Petrov,2,false
Dedun,100,true
Putin,0,false
Dedun,15,true
Lysenko,4,false
220yan,2,false
Nykolenko,1,true
Pir,155,true
Sorokin,5,true
as,2,true
Petrov,2,false
Dedun,100,true
Putin,0,false
Dedun,15,true
Lysenko,4,false
230yan,2,false
Nykolenko,1,true
Pir,155,true
Sorokin,5,true
as,2,true
Petrov,2,false
Dedun,100,true
Putin,0,false
Dedun,15,true
Lysenko,4,false
240yan,2,false
Nykolenko,1,true
Pir,155,true
Sorokin,5,true
as,2,true
Petrov,2,false
Dedun,100,true
Putin,0,false
Dedun,15,true
Lysenko,4,false
250yan,2,false
Nykolenko,1,true
Pir,155,true
Sorokin,5,true
as,2,true
Petrov,2,false
Dedun,100,true
Putin,0,false
Dedun,15,true
Lysenko,4,false
260yan,2,false
Nykolenko,1,true
Pir,155,true
Sorokin,5,true
as,2,true
Petrov,2,false
Dedun,100,true
Putin,0,false
Dedun,15,true
Lysenko,4,false
270yan,2,false
Nykolenko,1,true
Pir,155,true
Sorokin,5,true
as,2,true
Petrov,2,false
Dedun,100,true
Putin,0,false
Dedun,15,true
Lysenko,4,false
280yan,2,false
Nykolenko,1,true
Pir,155,true
Sorokin,5,true
as,2,true
Petrov,2,false
Dedun,100,true
Putin,0,false
Dedun,15,true
Lysenko,4,false
290yan,2,false
Nykolenko,1,true
Pir,155,true
Sorokin,5,true
as,2,true
Petrov,2,false
Dedun,100,true
Putin,0,false
Dedun,15,true
Lysenko,4,false
300yan,2,false
Nykolenko,1,true
Pir,155,true
Sorokin,5,true
as,2,true
Petrov,2,false
Dedun,100,true
Putin,0,false
Dedun,15,true
Lysenko,4,false
310yan,2,false
Nykolenko,1,true
Pir,155,true
Sorokin,5,true
as,2,true
Petrov,2,false
Dedun,100,true
Putin,0,false
Dedun,15,true
Lysenko,4,false
320yan,2,false
Nykolenko,1,true
Pir,155,true
Sorokin,5,true
as,2,true
Petrov,2,false
Dedun,100,true
Putin,0,false
Dedun,15,true
Lysenko,4,false
330yan,2,false
Nykolenko,1,true
Pir,155,true
Sorokin,5,true
as,2,true
Petrov,2,false
Dedun,100,true
Putin,0,false
Dedun,15,true
Lysenko,4,false
340yan,2,false
Nykolenko,1,true
Pir,155,true
Sorokin,5,true
as,2,true
Petrov,2,false
Dedun,100,true
Putin,0,false
Dedun,15,true
Lysenko,4,false
350yan,2,false
Nykolenko,1,true
Pir,155,true
Sorokin,5,true
as,2,true
Petrov,2,false
Dedun,100,true
Putin,0,false
Dedun,15,true
Lysenko,4,false
360yan,2,false
Nykolenko,1,true
Pir,155,true
Sorokin,5,true
as,2,true
Petrov,2,false
Dedun,100,true
Putin,0,false
Dedun,15,true
Lysenko,4,false
370yan,2,false
